{
  "input": {
    "tableId": 1080602,
    "size": 3
  },
  "output": {
    "count": 11,
    "next": "http://api.baserow.io/api/database/rows/table/1080602/?page=2&size=3",
    "results": [
      {
        "id": 11,
        "order": "0.50000000000000000000",
        "field_9571320": "Seed Test Move A",
        "field_9571327": "Disposable row for move-row action testing",
        "field_9571328": null,
        "field_9571329": null,
        "field_9571330": null,
        "field_9571331": [],
        "field_9571333": [],
        "field_9571335": []
      },
      {
        "id": 1,
        "order": "1.00000000000000000000",
        "field_9571320": "Design UI",
        "field_9571327": "Design homepage and product pages.",
        "field_9571328": {
          "id": 6834393,
          "value": "Planned",
          "color": "blue"
        },
        "field_9571329": {
          "id": 6834399,
          "value": "High",
          "color": "cyan"
        },
        "field_9571330": "2024-03-15",
        "field_9571331": [
          {
            "id": 1,
            "value": "Alpha",
            "order": "1.00000000000000000000"
          }
        ],
        "field_9571333": [
          {
            "id": 1,
            "value": "Alice Johnson",
            "order": "1.00000000000000000000"
          }
        ],
        "field_9571335": []
      },
      {
        "id": 2,
        "order": "2.00000000000000000000",
        "field_9571320": "Configure CRM",
        "field_9571327": "Set up CRM database schema and migration scripts.",
        "field_9571328": {
          "id": 6834394,
          "value": "In Progress",
          "color": "green"
        },
        "field_9571329": {
          "id": 6834398,
          "value": "Medium",
          "color": "green"
        },
        "field_9571330": "2024-04-10",
        "field_9571331": [
          {
            "id": 2,
            "value": "Beta",
            "order": "2.00000000000000000000"
          }
        ],
        "field_9571333": [
          {
            "id": 2,
            "value": "Bob Smith",
            "order": "2.00000000000000000000"
          }
        ],
        "field_9571335": []
      }
    ]
  },
  "nango": {},
  "api": {
    "get": {
      "/database/rows/table/1080602/": {
        "response": {
          "count": 11,
          "next": "http://api.baserow.io/api/database/rows/table/1080602/?page=2&size=3",
          "previous": null,
          "results": [
            {
              "id": 11,
              "order": "0.50000000000000000000",
              "field_9571320": "Seed Test Move A",
              "field_9571327": "Disposable row for move-row action testing",
              "field_9571328": null,
              "field_9571329": null,
              "field_9571330": null,
              "field_9571331": [],
              "field_9571333": [],
              "field_9571335": []
            },
            {
              "id": 1,
              "order": "1.00000000000000000000",
              "field_9571320": "Design UI",
              "field_9571327": "Design homepage and product pages.",
              "field_9571328": {
                "id": 6834393,
                "value": "Planned",
                "color": "blue"
              },
              "field_9571329": {
                "id": 6834399,
                "value": "High",
                "color": "cyan"
              },
              "field_9571330": "2024-03-15",
              "field_9571331": [
                {
                  "id": 1,
                  "value": "Alpha",
                  "order": "1.00000000000000000000"
                }
              ],
              "field_9571333": [
                {
                  "id": 1,
                  "value": "Alice Johnson",
                  "order": "1.00000000000000000000"
                }
              ],
              "field_9571335": []
            },
            {
              "id": 2,
              "order": "2.00000000000000000000",
              "field_9571320": "Configure CRM",
              "field_9571327": "Set up CRM database schema and migration scripts.",
              "field_9571328": {
                "id": 6834394,
                "value": "In Progress",
                "color": "green"
              },
              "field_9571329": {
                "id": 6834398,
                "value": "Medium",
                "color": "green"
              },
              "field_9571330": "2024-04-10",
              "field_9571331": [
                {
                  "id": 2,
                  "value": "Beta",
                  "order": "2.00000000000000000000"
                }
              ],
              "field_9571333": [
                {
                  "id": 2,
                  "value": "Bob Smith",
                  "order": "2.00000000000000000000"
                }
              ],
              "field_9571335": []
            }
          ]
        },
        "status": 200,
        "headers": {
          "date": "Thu, 16 Jul 2026 00:25:33 GMT",
          "content-type": "application/json",
          "transfer-encoding": "chunked",
          "connection": "keep-alive",
          "x-xss-protection": "0",
          "x-content-type-options": "nosniff",
          "x-download-options": "noopen",
          "x-frame-options": "DENY",
          "x-dns-prefetch-control": "off",
          "strict-transport-security": "max-age=5184000; includeSubDomains",
          "content-security-policy-report-only": "default-src 'self' https://app.nango.dev https://api.nango.dev https://connect.nango.dev;child-src 'self';connect-src 'self' https://*.google-analytics.com https://*.sentry.io https://app.nango.dev https://api.nango.dev wss://api.nango.dev/ https://connect.nango.dev https://*.posthog.com https://*.stripe.com https://*.plain.com wss://*.plain.com https://raw.githubusercontent.com;font-src 'self' data: https://*.googleapis.com https://*.gstatic.com https://*.cdn-plain.com;frame-src 'self' https://accounts.google.com https://app.nango.dev https://api.nango.dev https://connect.nango.dev https://www.youtube.com https://*.stripe.com;img-src 'self' data: blob: https://app.nango.dev https://api.nango.dev https://*.google-analytics.com https://*.googleapis.com https://*.posthog.com https://img.logo.dev https://*.ytimg.com https://*.plain.com;manifest-src 'self';media-src 'self';object-src 'self';script-src 'self' 'unsafe-eval' 'unsafe-inline' https://app.nango.dev https://api.nango.dev https://*.stripe.com https://*.google-analytics.com https://*.googleapis.com https://apis.google.com https://*.posthog.com https://www.youtube.com https://*.cdn-plain.com;style-src blob: 'self' 'unsafe-inline' https://*.googleapis.com https://app.nango.dev https://api.nango.dev;worker-src blob: 'self' https://app.nango.dev https://api.nango.dev https://*.googleapis.com https://*.posthog.com;base-uri 'self';form-action 'self';frame-ancestors 'self';script-src-attr 'none';upgrade-insecure-requests",
          "access-control-allow-origin": "*",
          "access-control-expose-headers": "Authorization, Etag, Content-Type, Content-Length, X-Nango-Signature, X-RateLimit-Limit, X-RateLimit-Remaining, X-RateLimit-Reset",
          "x-ratelimit-limit": "5000",
          "x-ratelimit-remaining": "4977",
          "x-ratelimit-reset": "1784161547",
          "server": "cloudflare",
          "allow": "GET, POST, HEAD, OPTIONS",
          "referrer-policy": "same-origin",
          "cross-origin-opener-policy": "same-origin",
          "vary": "origin",
          "x-envoy-upstream-service-time": "154",
          "cf-cache-status": "DYNAMIC",
          "report-to": "{\"group\":\"cf-nel\",\"max_age\":604800,\"endpoints\":[{\"url\":\"https://a.nel.cloudflare.com/report/v4?s=fd3M56uJz9D3Snwyw41z%2Ffeyapxkei5Q9O1aWXhEvx2bCsgvUSxt8ZgyqzExL5ZUv9%2FxrbcJ3VjacXw0OAXxWS0Hn4HoXuex8cUXS5oChXCdFGKgC5WZlV9Pj31yzt9RIw%3D%3D\"}]}",
          "nel": "{\"report_to\":\"cf-nel\",\"success_fraction\":0.0,\"max_age\":604800}",
          "cf-ray": "a1bcded06ad65012-PDX",
          "alt-svc": "h3=\":443\"; ma=86400"
        },
        "hash": "d2fec1f0962bed6eb03b09252b3a956f6fc42ae5",
        "request": {
          "params": {
            "size": "3"
          }
        }
      }
    }
  }
}