{
  "input": {
    "limit": 2
  },
  "output": {
    "items": [
      {
        "id": 77,
        "name": "[Sample] Fog Linen Chambray Towel - Beige Stripe",
        "type": "physical",
        "sku": "SLCTBS",
        "description": "<p>The perfect beach towel: thin, lightweight and highly absorbent. Crafted by Fog Linen in Japan using soft Lithuanian linen, each towel rolls up for compact stowaway. Dry off after a refreshing dip in the ocean and stretch out on it for a sun bath. The thinness ensures a quick dry so you can have it rolled back up in your bag without soaking your belongings.</p>\n<p>Measures 75 x 145 cm/29.5 x 57 in</p>\n<p>100% Linen</p>",
        "weight": 1,
        "width": 0,
        "depth": 0,
        "height": 0,
        "price": 49,
        "cost_price": 0,
        "retail_price": 0,
        "sale_price": 0,
        "map_price": 0,
        "tax_class_id": 0,
        "product_tax_code": "",
        "calculated_price": 49,
        "categories": [
          23,
          18
        ],
        "brand_id": 0,
        "option_set_id": 14,
        "option_set_display": "right",
        "inventory_level": 0,
        "inventory_warning_level": 0,
        "inventory_tracking": "none",
        "reviews_rating_sum": 0,
        "reviews_count": 0,
        "total_sold": 4,
        "fixed_cost_shipping_price": 0,
        "is_free_shipping": false,
        "is_visible": true,
        "is_featured": false,
        "related_products": [
          -1
        ],
        "warranty": "",
        "bin_picking_number": "",
        "layout_file": "product.html",
        "upc": "",
        "mpn": "",
        "gtin": "",
        "date_last_imported": null,
        "search_keywords": "",
        "availability": "available",
        "availability_description": "",
        "gift_wrapping_options_type": "any",
        "gift_wrapping_options_list": [],
        "sort_order": 0,
        "condition": "New",
        "is_condition_shown": false,
        "order_quantity_minimum": 0,
        "order_quantity_maximum": 0,
        "page_title": "",
        "meta_keywords": [],
        "meta_description": "",
        "date_created": "2015-07-03T17:57:10+00:00",
        "date_modified": "2015-08-05T18:17:22+00:00",
        "view_count": 63,
        "preorder_release_date": null,
        "preorder_message": "0",
        "is_preorder_only": false,
        "is_price_hidden": false,
        "price_hidden_label": "0",
        "custom_url": {
          "url": "/fog-linen-chambray-towel-beige-stripe/",
          "is_customized": false
        },
        "base_variant_id": null,
        "open_graph_type": "product",
        "open_graph_title": "",
        "open_graph_description": "",
        "open_graph_use_meta_description": true,
        "open_graph_use_product_name": true,
        "open_graph_use_image": true
      },
      {
        "id": 80,
        "name": "[Sample] Orbit Terrarium - Large",
        "type": "physical",
        "sku": "OTL",
        "description": "<p>This strikingly beautiful terrarium will make a welcome addition to your home bringing some green to the scene. A handblown glass sphere rests freely on a thick, concave carved fir base allowing it to be angled in any direction.</p>\n<p><em>Plants, rocks and soil are not included.</em></p>\n<p>Measures 21.59 cm dia x 26.7 cm h / 8.5 in dia x 10.5 in h</p>",
        "weight": 1,
        "width": 1,
        "depth": 1,
        "height": 1,
        "price": 109,
        "cost_price": 0,
        "retail_price": 0,
        "sale_price": 0,
        "map_price": 0,
        "tax_class_id": 0,
        "product_tax_code": "",
        "calculated_price": 109,
        "categories": [
          19,
          23
        ],
        "brand_id": 0,
        "option_set_id": null,
        "option_set_display": "right",
        "inventory_level": 0,
        "inventory_warning_level": 0,
        "inventory_tracking": "none",
        "reviews_rating_sum": 4,
        "reviews_count": 1,
        "total_sold": 2,
        "fixed_cost_shipping_price": 0,
        "is_free_shipping": false,
        "is_visible": true,
        "is_featured": false,
        "related_products": [
          -1
        ],
        "warranty": "",
        "bin_picking_number": "",
        "layout_file": "product.html",
        "upc": "",
        "mpn": "",
        "gtin": "",
        "date_last_imported": null,
        "search_keywords": "",
        "availability": "available",
        "availability_description": "",
        "gift_wrapping_options_type": "any",
        "gift_wrapping_options_list": [],
        "sort_order": 0,
        "condition": "New",
        "is_condition_shown": false,
        "order_quantity_minimum": 0,
        "order_quantity_maximum": 0,
        "page_title": "",
        "meta_keywords": [],
        "meta_description": "",
        "date_created": "2015-07-03T18:02:32+00:00",
        "date_modified": "2015-12-15T06:23:43+00:00",
        "view_count": 73,
        "preorder_release_date": null,
        "preorder_message": "0",
        "is_preorder_only": false,
        "is_price_hidden": false,
        "price_hidden_label": "0",
        "custom_url": {
          "url": "/orbit-terrarium-large/",
          "is_customized": false
        },
        "base_variant_id": 64,
        "open_graph_type": "product",
        "open_graph_title": "",
        "open_graph_description": "",
        "open_graph_use_meta_description": true,
        "open_graph_use_product_name": true,
        "open_graph_use_image": true
      }
    ],
    "next_cursor": "2"
  },
  "nango": {},
  "api": {
    "get": {
      "/v3/catalog/products": {
        "response": {
          "data": [
            {
              "id": 77,
              "name": "[Sample] Fog Linen Chambray Towel - Beige Stripe",
              "type": "physical",
              "sku": "SLCTBS",
              "description": "<p>The perfect beach towel: thin, lightweight and highly absorbent. Crafted by Fog Linen in Japan using soft Lithuanian linen, each towel rolls up for compact stowaway. Dry off after a refreshing dip in the ocean and stretch out on it for a sun bath. The thinness ensures a quick dry so you can have it rolled back up in your bag without soaking your belongings.</p>\n<p>Measures 75 x 145 cm/29.5 x 57 in</p>\n<p>100% Linen</p>",
              "weight": 1,
              "width": 0,
              "depth": 0,
              "height": 0,
              "price": 49,
              "cost_price": 0,
              "retail_price": 0,
              "sale_price": 0,
              "map_price": 0,
              "tax_class_id": 0,
              "product_tax_code": "",
              "calculated_price": 49,
              "categories": [
                23,
                18
              ],
              "brand_id": 0,
              "option_set_id": 14,
              "option_set_display": "right",
              "inventory_level": 0,
              "inventory_warning_level": 0,
              "inventory_tracking": "none",
              "reviews_rating_sum": 0,
              "reviews_count": 0,
              "total_sold": 4,
              "fixed_cost_shipping_price": 0,
              "is_free_shipping": false,
              "is_visible": true,
              "is_featured": false,
              "related_products": [
                -1
              ],
              "warranty": "",
              "bin_picking_number": "",
              "layout_file": "product.html",
              "upc": "",
              "mpn": "",
              "gtin": "",
              "date_last_imported": null,
              "search_keywords": "",
              "availability": "available",
              "availability_description": "",
              "gift_wrapping_options_type": "any",
              "gift_wrapping_options_list": [],
              "sort_order": 0,
              "condition": "New",
              "is_condition_shown": false,
              "order_quantity_minimum": 0,
              "order_quantity_maximum": 0,
              "page_title": "",
              "meta_keywords": [],
              "meta_description": "",
              "date_created": "2015-07-03T17:57:10+00:00",
              "date_modified": "2015-08-05T18:17:22+00:00",
              "view_count": 63,
              "preorder_release_date": null,
              "preorder_message": "0",
              "is_preorder_only": false,
              "is_price_hidden": false,
              "price_hidden_label": "0",
              "custom_url": {
                "url": "/fog-linen-chambray-towel-beige-stripe/",
                "is_customized": false
              },
              "base_variant_id": null,
              "open_graph_type": "product",
              "open_graph_title": "",
              "open_graph_description": "",
              "open_graph_use_meta_description": true,
              "open_graph_use_product_name": true,
              "open_graph_use_image": true
            },
            {
              "id": 80,
              "name": "[Sample] Orbit Terrarium - Large",
              "type": "physical",
              "sku": "OTL",
              "description": "<p>This strikingly beautiful terrarium will make a welcome addition to your home bringing some green to the scene. A handblown glass sphere rests freely on a thick, concave carved fir base allowing it to be angled in any direction.</p>\n<p><em>Plants, rocks and soil are not included.</em></p>\n<p>Measures 21.59 cm dia x 26.7 cm h / 8.5 in dia x 10.5 in h</p>",
              "weight": 1,
              "width": 1,
              "depth": 1,
              "height": 1,
              "price": 109,
              "cost_price": 0,
              "retail_price": 0,
              "sale_price": 0,
              "map_price": 0,
              "tax_class_id": 0,
              "product_tax_code": "",
              "calculated_price": 109,
              "categories": [
                19,
                23
              ],
              "brand_id": 0,
              "option_set_id": null,
              "option_set_display": "right",
              "inventory_level": 0,
              "inventory_warning_level": 0,
              "inventory_tracking": "none",
              "reviews_rating_sum": 4,
              "reviews_count": 1,
              "total_sold": 2,
              "fixed_cost_shipping_price": 0,
              "is_free_shipping": false,
              "is_visible": true,
              "is_featured": false,
              "related_products": [
                -1
              ],
              "warranty": "",
              "bin_picking_number": "",
              "layout_file": "product.html",
              "upc": "",
              "mpn": "",
              "gtin": "",
              "date_last_imported": null,
              "search_keywords": "",
              "availability": "available",
              "availability_description": "",
              "gift_wrapping_options_type": "any",
              "gift_wrapping_options_list": [],
              "sort_order": 0,
              "condition": "New",
              "is_condition_shown": false,
              "order_quantity_minimum": 0,
              "order_quantity_maximum": 0,
              "page_title": "",
              "meta_keywords": [],
              "meta_description": "",
              "date_created": "2015-07-03T18:02:32+00:00",
              "date_modified": "2015-12-15T06:23:43+00:00",
              "view_count": 73,
              "preorder_release_date": null,
              "preorder_message": "0",
              "is_preorder_only": false,
              "is_price_hidden": false,
              "price_hidden_label": "0",
              "custom_url": {
                "url": "/orbit-terrarium-large/",
                "is_customized": false
              },
              "base_variant_id": 64,
              "open_graph_type": "product",
              "open_graph_title": "",
              "open_graph_description": "",
              "open_graph_use_meta_description": true,
              "open_graph_use_product_name": true,
              "open_graph_use_image": true
            }
          ],
          "meta": {
            "pagination": {
              "total": 16,
              "count": 2,
              "per_page": 2,
              "current_page": 1,
              "total_pages": 8,
              "links": {
                "next": "?limit=2&page=2",
                "current": "?limit=2&page=1"
              },
              "too_many": false
            }
          }
        },
        "status": 200,
        "headers": {
          "date": "Thu, 18 Jun 2026 14:33:24 GMT",
          "content-type": "application/json",
          "transfer-encoding": "chunked",
          "connection": "keep-alive",
          "x-xss-protection": "0",
          "x-content-type-options": "nosniff",
          "x-download-options": "noopen",
          "x-frame-options": "SAMEORIGIN",
          "x-dns-prefetch-control": "off",
          "strict-transport-security": "max-age=31536000; includeSubDomains",
          "content-security-policy-report-only": "default-src 'self' https://app.nango.dev https://api.nango.dev https://connect.nango.dev;child-src 'self';connect-src 'self' https://*.google-analytics.com https://*.sentry.io https://app.nango.dev https://api.nango.dev wss://api.nango.dev/ https://connect.nango.dev https://*.posthog.com https://*.stripe.com https://*.plain.com wss://*.plain.com;font-src 'self' https://*.googleapis.com https://*.gstatic.com;frame-src 'self' https://accounts.google.com https://app.nango.dev https://api.nango.dev https://connect.nango.dev https://www.youtube.com https://*.stripe.com;img-src 'self' data: https://app.nango.dev https://api.nango.dev https://*.google-analytics.com https://*.googleapis.com https://*.posthog.com https://img.logo.dev https://*.ytimg.com https://*.plain.com;manifest-src 'self';media-src 'self';object-src 'self';script-src 'self' 'unsafe-eval' 'unsafe-inline' https://app.nango.dev https://api.nango.dev https://*.stripe.com https://*.google-analytics.com https://*.googleapis.com https://apis.google.com https://*.posthog.com https://www.youtube.com https://chat.cdn-plain.com;style-src blob: 'self' 'unsafe-inline' https://*.googleapis.com https://app.nango.dev https://api.nango.dev;worker-src blob: 'self' https://app.nango.dev https://api.nango.dev https://*.googleapis.com https://*.posthog.com;base-uri 'self';form-action 'self';frame-ancestors 'self';script-src-attr 'none';upgrade-insecure-requests",
          "access-control-allow-origin": "*",
          "access-control-expose-headers": "Authorization, Etag, Content-Type, Content-Length, X-Nango-Signature, X-RateLimit-Limit, X-RateLimit-Remaining, X-RateLimit-Reset",
          "x-ratelimit-limit": "5000",
          "x-ratelimit-remaining": "4928",
          "x-ratelimit-reset": "1781793207",
          "vary": "Accept-Encoding",
          "x-request-id": "b229ae2b73ebbc70ba7474cc6005b3c5",
          "x-rate-limit-requests-left": "147",
          "x-rate-limit-time-reset-ms": "8237",
          "x-rate-limit-requests-quota": "150",
          "x-rate-limit-time-window-ms": "30000"
        },
        "hash": "2f2051897d3236b9492e815bbb6e3da3afe6bcb7",
        "request": {
          "params": {
            "limit": "2"
          },
          "headers": {
            "X-Auth-Token": "fermiatee6aufil63xw3o6e85lo0wwx"
          }
        }
      }
    }
  }
}