{
  "input": {
    "product_id": 77,
    "limit": 1
  },
  "output": {
    "variants": [
      {
        "id": 1,
        "product_id": 77,
        "sku": "SLCTBS-A9615491",
        "sku_id": 70,
        "calculated_price": 49,
        "calculated_weight": 1,
        "is_free_shipping": false,
        "purchasing_disabled": false,
        "purchasing_disabled_message": "",
        "image_url": "",
        "cost_price": 0,
        "upc": "",
        "mpn": "",
        "gtin": "",
        "inventory_level": 0,
        "inventory_warning_level": 0,
        "bin_picking_number": "",
        "option_values": [
          {
            "id": 68,
            "label": "XS",
            "option_id": 108,
            "option_display_name": "Size"
          },
          {
            "id": 7,
            "label": "Silver",
            "option_id": 109,
            "option_display_name": "Color"
          }
        ]
      }
    ],
    "next_page": "2"
  },
  "nango": {},
  "api": {
    "get": {
      "/v3/catalog/products/77/variants": {
        "response": {
          "data": [
            {
              "id": 1,
              "product_id": 77,
              "sku": "SLCTBS-A9615491",
              "sku_id": 70,
              "price": null,
              "calculated_price": 49,
              "sale_price": null,
              "retail_price": null,
              "map_price": null,
              "fixed_cost_shipping_price": null,
              "cost_price": 0,
              "weight": null,
              "width": null,
              "height": null,
              "depth": null,
              "is_free_shipping": false,
              "calculated_weight": 1,
              "purchasing_disabled": false,
              "purchasing_disabled_message": "",
              "image_url": "",
              "upc": "",
              "mpn": "",
              "gtin": "",
              "inventory_level": 0,
              "inventory_warning_level": 0,
              "bin_picking_number": "",
              "option_values": [
                {
                  "id": 68,
                  "label": "XS",
                  "option_id": 108,
                  "option_display_name": "Size"
                },
                {
                  "id": 7,
                  "label": "Silver",
                  "option_id": 109,
                  "option_display_name": "Color"
                }
              ]
            }
          ],
          "meta": {
            "pagination": {
              "total": 40,
              "count": 1,
              "per_page": 1,
              "current_page": 1,
              "total_pages": 40,
              "links": {
                "current": "?page=1&limit=1",
                "next": "?page=2&limit=1"
              }
            }
          }
        },
        "status": 200,
        "headers": {
          "date": "Thu, 18 Jun 2026 16:28:47 GMT",
          "content-type": "application/json",
          "transfer-encoding": "chunked",
          "connection": "keep-alive",
          "x-xss-protection": "0",
          "x-content-type-options": "nosniff",
          "x-download-options": "noopen",
          "x-frame-options": "SAMEORIGIN",
          "x-dns-prefetch-control": "off",
          "strict-transport-security": "max-age=31536000; includeSubDomains",
          "content-security-policy-report-only": "default-src 'self' https://app.nango.dev https://api.nango.dev https://connect.nango.dev;child-src 'self';connect-src 'self' https://*.google-analytics.com https://*.sentry.io https://app.nango.dev https://api.nango.dev wss://api.nango.dev/ https://connect.nango.dev https://*.posthog.com https://*.stripe.com https://*.plain.com wss://*.plain.com;font-src 'self' https://*.googleapis.com https://*.gstatic.com;frame-src 'self' https://accounts.google.com https://app.nango.dev https://api.nango.dev https://connect.nango.dev https://www.youtube.com https://*.stripe.com;img-src 'self' data: https://app.nango.dev https://api.nango.dev https://*.google-analytics.com https://*.googleapis.com https://*.posthog.com https://img.logo.dev https://*.ytimg.com https://*.plain.com;manifest-src 'self';media-src 'self';object-src 'self';script-src 'self' 'unsafe-eval' 'unsafe-inline' https://app.nango.dev https://api.nango.dev https://*.stripe.com https://*.google-analytics.com https://*.googleapis.com https://apis.google.com https://*.posthog.com https://www.youtube.com https://chat.cdn-plain.com;style-src blob: 'self' 'unsafe-inline' https://*.googleapis.com https://app.nango.dev https://api.nango.dev;worker-src blob: 'self' https://app.nango.dev https://api.nango.dev https://*.googleapis.com https://*.posthog.com;base-uri 'self';form-action 'self';frame-ancestors 'self';script-src-attr 'none';upgrade-insecure-requests",
          "access-control-allow-origin": "*",
          "access-control-expose-headers": "Authorization, Etag, Content-Type, Content-Length, X-Nango-Signature, X-RateLimit-Limit, X-RateLimit-Remaining, X-RateLimit-Reset",
          "x-ratelimit-limit": "5000",
          "x-ratelimit-remaining": "4974",
          "x-ratelimit-reset": "1781800150",
          "vary": "Accept-Encoding",
          "x-rate-limit-requests-left": "149",
          "x-rate-limit-time-reset-ms": "29999",
          "x-rate-limit-requests-quota": "150",
          "x-rate-limit-time-window-ms": "30000",
          "x-request-id": "0225c6541b52b636963b63885004b463"
        },
        "hash": "12994dee209fe08672cc1cfca626c4765efcd22d",
        "request": {
          "params": {
            "limit": "1",
            "page": "1"
          },
          "headers": {
            "Nango-Base-Url-Override": "https://api.bigcommerce.com/stores/hc5d9t2irc",
            "X-Auth-Token": "fermiatee6aufil63xw3o6e85lo0wwx"
          }
        }
      }
    }
  }
}