{
    "method": "get",
    "endpoint": "users/me/recordings",
    "requestIdentityHash": "4a9135545251249eb3983b99bebd447b97dd4b6d",
    "requestIdentity": {
        "method": "get",
        "endpoint": "users/me/recordings",
        "params": [
            ["from", "2024-11-05"],
            ["next_page_token", "E8koIyUhYjnrxKefmrsFtO5RmBvUSihlE12"],
            ["to", "2024-12-05"]
        ],
        "headers": []
    },
    "response": {
        "from": "2024-11-05",
        "to": "2024-12-05",
        "page_count": 2,
        "page_size": 30,
        "total_records": 31,
        "next_page_token": "",
        "meetings": [
            {
                "uuid": "vdS61Oa8T3qGIEAMRIoHpg==",
                "id": 82400944973,
                "account_id": "uET0tmHjSNKK9pR945WnSg",
                "host_id": "DaaaaaaaaROWhDGAklgKLug",
                "topic": "Brian Beautiful's Zoom Meeting",
                "type": 1,
                "start_time": "2024-11-29T16:34:49Z",
                "timezone": "",
                "duration": 0,
                "total_size": 1040523,
                "recording_count": 6,
                "share_url": "https://us06web.zoom.us/rec/share/Zh87oHxe8ky0eSQ94r-aV9xUe6oHqazJwxYBy4QQFjpC7E2KhVAn6wJIUN6eimEu.vziKshitPoaIdhfY",
                "recording_files": [
                    {
                        "id": "19c95bff-ab19-4734-9909-48ec5763514a",
                        "meeting_id": "vdS61Oa8T3qGIEAMRIoHpg==",
                        "recording_start": "2024-11-29T16:36:00Z",
                        "recording_end": "2024-11-29T16:36:12Z",
                        "file_type": "M4A",
                        "file_extension": "M4A",
                        "file_size": 181530,
                        "play_url": "https://us06web.zoom.us/rec/play/nULfds12VXpYH5BQffdR58aWuueMIVq9DULV6qsZU6Qtrr7iax2sYySBnaoC6fMyiglEnfXFoReVqMyf.aUGWSsmj3nCQqUYy",
                        "download_url": "https://us06web.zoom.us/rec/download/nULfds12VXpYH5BQffdR58aWuueMIVq9DULV6qsZU6Qtrr7iax2sYySBnaoC6fMyiglEnfXFoReVqMyf.aUGWSsmj3nCQqUYy",
                        "status": "completed",
                        "recording_type": "audio_only"
                    },
                    {
                        "id": "e2fabbad-3a34-4a6c-b83c-2c8612947a12",
                        "meeting_id": "vdS61Oa8T3qGIEAMRIoHpg==",
                        "recording_start": "2024-11-29T16:36:00Z",
                        "recording_end": "2024-11-29T16:36:12Z",
                        "file_type": "TIMELINE",
                        "file_extension": "JSON",
                        "file_size": 93,
                        "download_url": "https://us06web.zoom.us/rec/download/apiBx4v4lYnbNSuJEnaqsxTSNHhIylHF8uCgPg6UhRUxoe8Zmew0K-ZJrkXAIxQvvoucGEy_8thuoja5.f4Ye8_FhcDWk83zX",
                        "status": "completed",
                        "recording_type": "timeline"
                    },
                    {
                        "id": "43eca7eb-417d-4bee-b480-843eb9c9b264",
                        "meeting_id": "vdS61Oa8T3qGIEAMRIoHpg==",
                        "recording_start": "2024-11-29T16:36:17Z",
                        "recording_end": "2024-11-29T16:36:24Z",
                        "file_type": "M4A",
                        "file_extension": "M4A",
                        "file_size": 107685,
                        "play_url": "https://us06web.zoom.us/rec/play/LUsaJQxMNrc5RAMJ3Yo6ABLi07qDw77dTBYON2O8jOqMYsytM1r6430JZAjd2IOK1FCxJlcWLPQ_jlF1.V_pxM75Ge4fkSdtO",
                        "download_url": "https://us06web.zoom.us/rec/download/LUsaJQxMNrc5RAMJ3Yo6ABLi07qDw77dTBYON2O8jOqMYsytM1r6430JZAjd2IOK1FCxJlcWLPQ_jlF1.V_pxM75Ge4fkSdtO",
                        "status": "completed",
                        "recording_type": "audio_only"
                    },
                    {
                        "id": "a1690908-8084-45be-9dbd-69f4f900e4a6",
                        "meeting_id": "vdS61Oa8T3qGIEAMRIoHpg==",
                        "recording_start": "2024-11-29T16:36:17Z",
                        "recording_end": "2024-11-29T16:36:24Z",
                        "file_type": "TIMELINE",
                        "file_extension": "JSON",
                        "file_size": 21,
                        "download_url": "https://us06web.zoom.us/rec/download/iTQNxp28_1syuMh3STEbqXFLcZ9UnOSTv6dWF3S9LIwwDwrlKvQQyhwgd1bc5yL8flMrX4oKn3DxYvmK.idEtFToQxKb215eZ",
                        "status": "completed",
                        "recording_type": "timeline"
                    },
                    {
                        "id": "621c7ebb-82b5-4228-a2cc-a0a05ec26332",
                        "meeting_id": "vdS61Oa8T3qGIEAMRIoHpg==",
                        "recording_start": "2024-11-29T16:36:00Z",
                        "recording_end": "2024-11-29T16:36:12Z",
                        "file_type": "MP4",
                        "file_extension": "MP4",
                        "file_size": 437711,
                        "play_url": "https://us06web.zoom.us/rec/play/uIT1iauzjBpT9HzMfSl5YT3WO3gNqs81foYYpePmBZ6Dp1yCCv97JB2ncROv74U4vWG5DzTI5ioYPMTx.GwD-Id6JtYlm0_ey",
                        "download_url": "https://us06web.zoom.us/rec/download/uIT1iauzjBpT9HzMfSl5YT3WO3gNqs81foYYpePmBZ6Dp1yCCv97JB2ncROv74U4vWG5DzTI5ioYPMTx.GwD-Id6JtYlm0_ey",
                        "status": "completed",
                        "recording_type": "shared_screen_with_speaker_view"
                    },
                    {
                        "id": "8038fdd7-3437-4d83-8f22-bacbfcbeeddf",
                        "meeting_id": "vdS61Oa8T3qGIEAMRIoHpg==",
                        "recording_start": "2024-11-29T16:36:17Z",
                        "recording_end": "2024-11-29T16:36:24Z",
                        "file_type": "MP4",
                        "file_extension": "MP4",
                        "file_size": 313483,
                        "play_url": "https://us06web.zoom.us/rec/play/AkVM1mgmzww014AMc5UaIEh6jN_kQX3_Xo67UN6z6PUsnpi3ig5bb5YPFDrV9OaecMa0lsHtJ9M_Tkru.xk79OA6lJUbvD2Nh",
                        "download_url": "https://us06web.zoom.us/rec/download/AkVM1mgmzww014AMc5UaIEh6jN_kQX3_Xo67UN6z6PUsnpi3ig5bb5YPFDrV9OaecMa0lsHtJ9M_Tkru.xk79OA6lJUbvD2Nh",
                        "status": "completed",
                        "recording_type": "shared_screen_with_speaker_view"
                    }
                ],
                "recording_play_passcode": "SDIBGIISzTmP1PXiVfhjFL5jA_lue-xJ"
            }
        ]
    },
    "status": 200,
    "headers": {
        "x-xss-protection": "0",
        "x-content-type-options": "nosniff",
        "x-download-options": "noopen",
        "x-frame-options": "SAMEORIGIN",
        "x-dns-prefetch-control": "off",
        "strict-transport-security": "max-age=5184000; includeSubDomains",
        "content-security-policy": "default-src 'self' http://localhost:3003 http://localhost:3003;child-src 'self';connect-src 'self' https://*.google-analytics.com https://*.sentry.io http://localhost:3003 http://localhost:3003 ws://localhost:3003/ https://*.posthog.com;font-src 'self' https://*.googleapis.com https://*.gstatic.com;frame-src 'self' https://accounts.google.com http://localhost:3003 http://localhost:3003 http://localhost:3009 https://www.youtube.com;img-src 'self' data: http://localhost:3003 http://localhost:3003 https://*.google-analytics.com https://*.googleapis.com https://*.posthog.com https://img.logo.dev https://*.ytimg.com;manifest-src 'self';media-src 'self';object-src 'self';script-src 'self' 'unsafe-eval' 'unsafe-inline' http://localhost:3003 http://localhost:3003 https://*.google-analytics.com https://*.googleapis.com https://apis.google.com https://*.posthog.com https://www.youtube.com;style-src blob: 'self' 'unsafe-inline' https://*.googleapis.com http://localhost:3003 http://localhost:3003;worker-src blob: 'self' http://localhost:3003 http://localhost:3003 https://*.googleapis.com https://*.posthog.com;base-uri 'self';form-action 'self';frame-ancestors 'self';script-src-attr 'none';upgrade-insecure-requests",
        "access-control-allow-origin": "*",
        "access-control-expose-headers": "Authorization, Etag, Content-Type, Content-Length, X-Nango-Signature, X-RateLimit-Limit, X-RateLimit-Remaining, X-RateLimit-Reset",
        "x-ratelimit-limit": "2400",
        "x-ratelimit-remaining": "2390",
        "x-ratelimit-reset": "1733406224",
        "content-type": "application/json; charset=utf-8",
        "content-length": "3805",
        "etag": "W/\"edd-0eEEqD35CUpM2h/mlcje2d0aNvk\"",
        "date": "Thu, 05 Dec 2024 13:43:28 GMT",
        "connection": "keep-alive",
        "keep-alive": "timeout=5"
    }
}
